^C:\USERS\KENNEYSP1\DOCUMENTS\FALL2016-JR YEAR\GAME DESIGN\GAMES- PROJECT1\DEBUG\AUDIO.OBJ|C:\USERS\KENNEYSP1\DOCUMENTS\FALL2016-JR YEAR\GAME DESIGN\GAMES- PROJECT1\DEBUG\BARON.OBJ|C:\USERS\KENNEYSP1\DOCUMENTS\FALL2016-JR YEAR\GAME DESIGN\GAMES- PROJECT1\DEBUG\CRYPTVI.OBJ|C:\USERS\KENNEYSP1\DOCUMENTS\FALL2016-JR YEAR\GAME DESIGN\GAMES- PROJECT1\DEBUG\ENTITY.OBJ|C:\USERS\KENNEYSP1\DOCUMENTS\FALL2016-JR YEAR\GAME DESIGN\GAMES- PROJECT1\DEBUG\EYEMONSTER.OBJ|C:\USERS\KENNEYSP1\DOCUMENTS\FALL2016-JR YEAR\GAME DESIGN\GAMES- PROJECT1\DEBUG\GAME.OBJ|C:\USERS\KENNEYSP1\DOCUMENTS\FALL2016-JR YEAR\GAME DESIGN\GAMES- PROJECT1\DEBUG\GRAPHICS.OBJ|C:\USERS\KENNEYSP1\DOCUMENTS\FALL2016-JR YEAR\GAME DESIGN\GAMES- PROJECT1\DEBUG\HEART.OBJ|C:\USERS\KENNEYSP1\DOCUMENTS\FALL2016-JR YEAR\GAME DESIGN\GAMES- PROJECT1\DEBUG\IMAGE.OBJ|C:\USERS\KENNEYSP1\DOCUMENTS\FALL2016-JR YEAR\GAME DESIGN\GAMES- PROJECT1\DEBUG\INPUT.OBJ|C:\USERS\KENNEYSP1\DOCUMENTS\FALL2016-JR YEAR\GAME DESIGN\GAMES- PROJECT1\DEBUG\REDMONSTER.OBJ|C:\USERS\KENNEYSP1\DOCUMENTS\FALL2016-JR YEAR\GAME DESIGN\GAMES- PROJECT1\DEBUG\TEXTDX.OBJ|C:\USERS\KENNEYSP1\DOCUMENTS\FALL2016-JR YEAR\GAME DESIGN\GAMES- PROJECT1\DEBUG\TEXTUREMANAGER.OBJ|C:\USERS\KENNEYSP1\DOCUMENTS\FALL2016-JR YEAR\GAME DESIGN\GAMES- PROJECT1\DEBUG\WINMAIN.OBJ
C:\USERS\KENNEYSP1\DOCUMENTS\FALL2016-JR YEAR\GAME DESIGN\GAMES- PROJECT1\DEBUG\CRYPTVI.ILK
C:\USERS\KENNEYSP1\DOCUMENTS\FALL2016-JR YEAR\GAME DESIGN\GAMES- PROJECT1\DEBUG\CRYPTVI.EXE
C:\USERS\KENNEYSP1\DOCUMENTS\FALL2016-JR YEAR\GAME DESIGN\GAMES- PROJECT1\DEBUG\CRYPTVI.PDB
